{
  "A":[[1,1],[4,8],[10,10],[12,20],[22,29],[31,35],[38,45],[47,62],[64,65],[67,72],[74,77],[80,85],[87,89],[91,94],[96,98],[100,103],[105,113],[115,132],[134,135],[137,139],[143,143],[145,146],[149,150],[153,155],[157,167],[171,173],[175,189],[191,208],[210,211],[214,218],[220,231],[233,246],[249,249],[251,275],[278,278],[280,288],[290,297],[299,306],[308,310],[312,315],[317,321],[323,330],[332,335],[337,341],[343,348],[350,352],[354,355],[357,360],[363,363],[365,377],[379,380],[382,383],[385,394],[396,403],[405,405],[407,407],[409,409],[412,415],[418,419],[421,422],[424,425],[427,427],[429,441],[443,449],[451,456],[458,468],[470,482],[484,497],[499,499],[501,503],[506,509],[511,512],[514,523],[525,542],[544,544],[546,547],[550,553],[555,555],[557,562],[564,581],[584,584],[586,594],[597,597],[599,601],[603,607],[609,610],[612,619],[621,621],[625,635],[637,640],[643,643],[645,647],[650,653],[655,658],[660,671],[673,674],[676,678],[681,681],[683,684],[686,687],[689,692],[694,694],[696,714],[716,722],[725,726],[728,747],[749,752],[755,757],[759,766],[768,774],[776,789],[791,796],[798,799],[801,802],[804,806],[808,813],[815,821],[823,823],[825,827],[831,832],[834,837],[839,839],[841,857],[859,859],[861,861],[863,864],[866,866],[870,870],[872,872],[874,874],[876,878],[880,885],[887,887],[889,889],[891,898],[901,906],[909,912],[914,914],[916,916],[918,920],[922,922],[925,925],[929,933],[937,937],[940,942],[944,950],[952,965],[967,968],[970,973],[975,979],[981,984],[986,993],[995,996],[998,999]],
  "B":[[1,3],[5,21],[24,26],[28,31],[33,38],[40,44],[46,46],[48,49],[51,51],[54,58],[61,64],[67,71],[73,73],[75,86],[88,88],[91,91],[94,94],[97,102],[104,107],[109,112],[114,118],[120,121],[123,124],[126,126],[128,129],[131,132],[134,138],[140,145],[149,150],[152,154],[156,162],[165,167],[169,169],[171,173],[175,176],[178,185],[187,188],[191,198],[200,205],[207,207],[209,209],[212,221],[223,223],[225,225],[227,230],[232,232],[234,240],[242,243],[246,251],[255,256],[258,259],[261,262],[264,270],[272,272],[274,276],[278,289],[292,297],[300,306],[309,315],[317,317],[319,320],[326,326],[328,328],[332,332],[335,335],[345,347],[349,352],[354,355],[357,362],[364,369],[371,371],[374,400],[402,406],[408,410],[413,413],[415,419],[423,437],[439,448],[450,450],[452,453],[455,457],[460,463],[465,474],[476,477],[479,479],[481,486],[489,494],[496,502],[504,516],[519,522],[524,547],[549,551],[553,557],[559,559],[561,567],[569,570],[572,574],[576,582],[584,584],[586,595],[597,599],[602,610],[612,613],[615,621],[624,624],[626,637],[639,651],[653,653],[655,656],[658,658],[660,664],[666,667],[669,672],[674,682],[684,698],[701,701],[703,712],[715,720],[722,727],[729,736],[738,745],[748,749],[752,752],[754,756],[758,760],[762,763],[765,769],[771,772],[774,774],[776,785],[787,792],[794,796],[798,799],[801,805],[807,810],[812,814],[816,820],[822,830],[832,832],[835,836],[838,842],[844,848],[850,851],[853,854],[856,862],[864,873],[875,883],[885,907],[910,912],[914,925],[927,929],[932,943],[945,950],[952,956],[958,963],[965,969],[971,971],[974,974],[977,980],[982,985],[987,991],[993,994],[996,999]],
  "C":[[2,7],[13,14],[20,20],[22,22],[24,24],[27,27],[30,30],[33,34],[37,38],[40,41],[44,53],[55,60],[62,67],[69,76],[78,83],[85,86],[89,91],[93,94],[96,98],[100,108],[110,123],[125,130],[133,137],[139,143],[145,149],[152,158],[160,162],[165,167],[169,169],[172,178],[181,181],[183,191],[194,195],[197,211],[213,220],[222,232],[235,237],[240,248],[250,255],[259,259],[261,263],[265,276],[278,280],[282,294],[296,304],[306,319],[321,325],[327,327],[329,332],[334,349],[351,354],[356,357],[359,365],[367,367],[369,370],[372,372],[374,378],[380,385],[387,390],[392,396],[398,398],[400,400],[404,410],[412,415],[417,418],[420,422],[424,424],[426,426],[428,430],[432,432],[435,444],[446,450],[452,453],[456,459],[461,461],[463,463],[466,467],[469,472],[474,474],[476,476],[478,489],[492,498],[500,518],[520,521],[523,534],[536,545],[547,569],[573,574],[576,578],[580,585],[587,589],[591,591],[593,596],[598,600],[604,606],[608,610],[612,616],[618,621],[623,625],[627,635],[637,641],[648,663],[665,665],[668,670],[672,681],[684,686],[689,689],[691,691],[694,705],[707,719],[722,730],[732,735],[738,747],[749,752],[754,760],[763,774],[776,785],[787,787],[789,797],[800,801],[803,804],[806,807],[810,821],[823,824],[826,826],[829,830],[835,836],[838,841],[844,848],[850,860],[862,862],[864,872],[875,880],[882,886],[888,888],[890,890],[893,895],[897,897],[900,905],[908,908],[910,912],[914,914],[917,920],[922,922],[925,931],[933,941],[943,944],[946,946],[948,960],[962,965],[968,969],[971,980],[982,984],[986,988],[990,996],[998,999]],
  "D":[[3,22],[24,24],[26,30],[33,33],[37,38],[40,46],[48,52],[54,54],[56,58],[61,62],[64,68],[72,72],[75,79],[81,82],[85,89],[92,96],[99,103],[105,105],[107,114],[117,124],[126,128],[131,134],[136,137],[139,139],[141,145],[147,147],[149,151],[154,154],[156,162],[165,166],[168,168],[170,172],[175,175],[177,177],[179,182],[184,189],[192,211],[214,214],[216,219],[221,223],[225,239],[243,248],[250,251],[253,253],[255,261],[264,273],[277,281],[284,284],[286,287],[289,293],[296,300],[302,305],[309,312],[314,319],[321,321],[323,325],[327,334],[336,336],[338,339],[341,341],[344,352],[355,358],[360,361],[364,367],[369,374],[376,377],[379,380],[383,386],[388,388],[390,392],[394,395],[398,399],[401,403],[406,408],[410,412],[414,416],[419,424],[426,426],[428,431],[433,434],[436,436],[440,445],[447,447],[449,459],[461,465],[467,477],[480,484],[486,497],[499,499],[501,506],[508,514],[516,516],[518,518],[520,520],[522,524],[526,532],[537,555],[557,557],[559,562],[564,579],[582,583],[585,597],[599,600],[604,609],[611,615],[617,617],[619,619],[621,624],[627,631],[634,641],[643,646],[649,656],[660,663],[665,668],[670,686],[688,691],[693,697],[700,715],[717,720],[725,728],[730,738],[740,742],[744,746],[748,752],[754,771],[773,777],[780,791],[793,794],[796,799],[801,805],[807,808],[810,815],[817,819],[821,821],[823,830],[832,832],[834,836],[839,839],[841,845],[847,856],[858,865],[867,876],[878,879],[881,886],[888,892],[894,899],[901,903],[905,907],[909,913],[915,915],[917,918],[920,921],[923,928],[930,935],[937,938],[940,949],[951,952],[956,978],[980,984],[986,988],[990,991],[993,999]],
  "E":[[1,1],[3,4],[6,17],[19,31],[33,34],[36,41],[43,45],[47,72],[74,74],[78,79],[81,94],[96,96],[98,98],[100,104],[106,107],[109,109],[111,111],[113,116],[118,118],[120,120],[122,122],[124,128],[130,136],[138,139],[141,156],[158,161],[163,165],[167,173],[177,180],[182,182],[184,185],[187,189],[191,193],[195,196],[199,210],[212,217],[219,219],[221,224],[226,230],[232,246],[248,253],[255,256],[258,259],[261,261],[263,266],[269,274],[280,285],[287,292],[295,297],[299,299],[301,301],[304,311],[313,314],[317,317],[320,321],[323,323],[325,330],[332,343],[345,346],[348,351],[353,354],[356,356],[358,358],[360,360],[363,382],[386,398],[400,403],[405,407],[409,410],[412,417],[419,426],[428,439],[441,441],[443,445],[447,448],[450,452],[454,459],[461,476],[479,494],[496,498],[500,500],[502,502],[504,507],[509,510],[512,512],[514,515],[517,520],[522,532],[535,544],[546,555],[557,560],[562,566],[569,571],[573,574],[576,576],[578,578],[581,581],[583,594],[596,597],[599,600],[602,602],[605,608],[610,611],[613,615],[617,618],[620,627],[629,630],[632,633],[635,635],[638,640],[644,649],[651,652],[654,656],[658,662],[664,669],[671,675],[677,685],[687,695],[698,698],[700,700],[704,709],[711,716],[718,719],[722,724],[726,727],[729,731],[734,738],[742,743],[745,754],[757,764],[767,767],[769,770],[772,773],[775,775],[777,780],[782,791],[793,795],[798,801],[803,821],[825,825],[829,830],[833,844],[847,848],[850,856],[858,860],[862,866],[868,870],[872,880],[882,885],[887,889],[891,894],[896,897],[899,908],[910,912],[914,915],[917,917],[919,919],[921,925],[927,934],[936,936],[938,941],[944,947],[949,949],[951,963],[965,965],[967,968],[970,984],[986,995],[997,999]],
  "F":[[1,7],[9,13],[15,17],[19,30],[32,33],[35,35],[37,37],[41,48],[50,55],[58,59],[61,61],[63,68],[70,70],[73,74],[78,78],[80,89],[91,98],[100,102],[104,123],[125,127],[130,141],[144,149],[151,158],[161,162],[164,165],[167,168],[170,176],[181,184],[186,194],[196,196],[198,203],[205,210],[213,214],[216,221],[223,226],[229,233],[235,235],[238,244],[246,251],[254,254],[256,263],[265,272],[274,281],[283,284],[286,288],[290,290],[293,295],[297,297],[299,299],[301,301],[304,313],[315,320],[322,330],[332,333],[335,338],[340,343],[346,348],[351,352],[354,361],[363,365],[367,387],[390,411],[414,417],[419,420],[422,424],[426,430],[432,434],[437,437],[440,443],[445,446],[448,450],[452,458],[460,465],[467,469],[471,471],[473,484],[486,489],[491,504],[506,520],[522,524],[526,529],[531,538],[540,553],[555,570],[572,574],[576,576],[578,582],[585,587],[589,601],[603,612],[614,614],[616,616],[618,623],[625,629],[631,632],[634,634],[636,642],[644,644],[646,646],[648,648],[651,651],[653,657],[659,662],[664,672],[674,677],[679,682],[685,690],[692,694],[696,698],[701,701],[703,713],[715,718],[720,740],[743,751],[754,754],[756,756],[758,758],[760,762],[764,768],[770,777],[779,781],[783,786],[788,789],[791,791],[793,793],[795,795],[797,799],[801,802],[804,804],[806,806],[808,811],[813,818],[820,820],[822,822],[826,826],[828,833],[835,849],[851,853],[856,859],[861,868],[870,872],[874,874],[876,878],[880,887],[889,895],[898,902],[904,904],[906,908],[910,918],[920,927],[929,935],[937,937],[939,939],[941,944],[947,952],[955,958],[960,968],[970,970],[972,972],[974,983],[985,999]],
  "G":[[1,12],[15,16],[18,23],[25,26],[28,28],[30,32],[34,34],[36,37],[39,50],[54,54],[56,56],[58,58],[61,66],[68,68],[70,71],[74,76],[78,84],[86,90],[93,93],[95,98],[102,103],[105,105],[107,111],[113,126],[128,131],[133,137],[139,161],[163,171],[173,173],[178,179],[181,215],[217,218],[220,230],[232,234],[237,238],[240,243],[247,255],[257,264],[266,268],[270,278],[280,300],[302,309],[311,312],[315,320],[323,325],[327,331],[333,340],[342,342],[344,344],[346,350],[352,354],[358,359],[361,362],[364,365],[367,368],[370,372],[374,374],[376,379],[381,389],[391,400],[402,404],[406,408],[410,412],[415,421],[424,424],[426,439],[441,459],[461,463],[465,465],[467,467],[469,469],[471,471],[474,489],[491,500],[502,502],[504,526],[528,529],[532,532],[534,538],[540,543],[545,547],[549,549],[551,553],[555,561],[564,566],[568,568],[570,572],[574,577],[579,580],[582,583],[587,594],[596,598],[600,616],[618,639],[641,651],[653,654],[656,666],[669,674],[676,678],[680,688],[690,699],[702,705],[707,707],[710,710],[712,713],[715,722],[724,724],[726,729],[733,737],[740,743],[746,747],[749,749],[751,758],[760,777],[779,780],[782,809],[811,818],[820,823],[825,827],[829,831],[833,834],[836,840],[842,844],[846,856],[858,862],[864,867],[869,875],[877,879],[881,882],[886,891],[894,895],[900,900],[902,907],[909,910],[912,914],[916,917],[919,927],[929,929],[931,937],[939,940],[942,945],[947,947],[949,951],[953,955],[957,957],[959,966],[968,970],[972,982],[985,995],[997,997],[999,999]],
  "H":[[1,2],[4,4],[6,8],[10,11],[13,15],[17,22],[26,30],[33,34],[36,40],[42,43],[45,48],[50,50],[52,52],[55,57],[59,59],[61,63],[68,74],[76,78],[81,81],[83,83],[85,92],[94,98],[100,104],[106,110],[114,114],[117,124],[126,132],[134,134],[140,140],[143,143],[145,148],[150,154],[156,157],[159,159],[161,163],[165,166],[168,168],[171,171],[173,177],[180,180],[182,189],[192,192],[194,196],[198,200],[202,207],[210,214],[216,216],[218,225],[227,230],[233,233],[235,236],[238,238],[240,240],[242,248],[250,250],[253,259],[262,277],[280,282],[284,289],[291,294],[297,305],[307,308],[311,316],[319,331],[333,338],[340,344],[346,348],[350,350],[352,357],[359,367],[369,369],[371,373],[375,380],[382,387],[389,396],[398,414],[416,418],[420,429],[431,434],[436,456],[458,462],[465,468],[470,470],[472,475],[477,481],[484,486],[488,495],[497,498],[500,503],[505,509],[511,512],[514,514],[516,519],[521,523],[525,525],[527,529],[531,542],[544,547],[549,549],[552,556],[558,562],[564,566],[568,570],[572,575],[577,581],[583,585],[588,594],[596,596],[598,599],[601,602],[604,604],[606,610],[612,612],[614,615],[618,618],[620,623],[625,625],[627,635],[637,637],[639,639],[641,648],[650,650],[652,652],[654,655],[657,659],[661,662],[665,666],[669,679],[681,684],[686,691],[693,695],[699,708],[710,710],[712,717],[719,721],[723,727],[729,736],[738,739],[743,746],[749,749],[752,757],[760,760],[763,775],[777,787],[789,812],[814,816],[818,827],[829,831],[833,836],[838,848],[850,852],[855,863],[865,865],[867,868],[870,870],[872,873],[875,878],[880,901],[903,903],[906,907],[910,914],[916,924],[926,926],[928,931],[933,933],[935,945],[949,949],[951,953],[955,959],[961,962],[964,964],[966,967],[969,971],[973,982],[984,992],[994,994],[996,997],[999,999]],
  "I":[[2,3],[5,5],[7,8],[11,12],[14,14],[16,19],[23,32],[34,35],[37,37],[40,40],[42,42],[45,49],[51,54],[56,63],[65,66],[71,74],[76,76],[79,79],[82,82],[84,86],[88,90],[92,93],[95,96],[98,98],[102,103],[105,105],[107,110],[113,126],[128,133],[135,140],[142,145],[147,148],[150,158],[162,166],[168,179],[181,185],[187,193],[196,199],[201,203],[205,210],[213,217],[219,221],[224,226],[230,230],[232,234],[236,238],[240,240],[242,244],[247,249],[251,251],[253,256],[258,266],[271,271],[273,294],[296,296],[298,298],[300,302],[304,312],[314,322],[324,324],[326,330],[332,333],[335,337],[339,339],[341,342],[344,354],[356,357],[359,365],[367,368],[370,377],[381,382],[384,384],[388,394],[396,396],[400,405],[407,412],[414,418],[420,426],[428,439],[441,445],[447,449],[451,455],[457,457],[459,480],[482,487],[489,490],[492,494],[496,499],[501,501],[503,504],[506,507],[510,512],[514,514],[519,520],[522,523],[526,527],[529,541],[543,546],[548,551],[553,556],[558,559],[561,567],[569,571],[573,573],[576,578],[580,582],[585,585],[588,615],[618,619],[621,622],[624,637],[639,657],[659,663],[666,671],[673,673],[676,679],[681,684],[686,690],[692,693],[695,707],[709,709],[711,712],[714,718],[720,721],[723,730],[732,732],[734,739],[741,745],[747,754],[756,761],[763,763],[765,765],[767,767],[771,772],[774,775],[777,783],[785,787],[790,794],[796,805],[808,809],[812,813],[815,815],[817,817],[819,832],[835,835],[838,841],[843,845],[847,858],[860,869],[871,881],[884,889],[891,896],[898,899],[901,912],[914,914],[916,917],[919,919],[921,930],[932,932],[935,939],[941,943],[945,956],[959,960],[962,965],[968,970],[973,982],[984,986],[990,998]],
  "L":[[2,4],[6,11],[13,20],[22,27],[30,30],[32,40],[42,42],[44,44],[46,50],[55,67],[69,71],[73,75],[78,78],[81,90],[93,94],[96,97],[100,109],[111,113],[115,118],[120,127],[131,132],[134,134],[136,140],[142,147],[149,150],[152,158],[160,160],[162,169],[172,178],[180,195],[197,197],[199,207],[210,221],[223,225],[227,231],[233,233],[235,235],[237,241],[243,248],[250,254],[256,259],[262,263],[265,265],[267,267],[269,274],[276,282],[284,287],[290,299],[301,310],[312,312],[314,317],[319,319],[321,340],[342,342],[345,349],[353,357],[359,359],[361,361],[363,364],[366,369],[371,372],[375,375],[377,386],[388,390],[392,393],[396,404],[406,411],[413,416],[418,440],[444,445],[447,455],[457,464],[466,466],[468,475],[477,478],[480,480],[482,485],[487,490],[492,492],[494,494],[496,503],[505,509],[511,517],[519,519],[521,522],[524,529],[531,533],[535,535],[537,540],[544,548],[550,552],[554,558],[561,584],[586,586],[588,591],[593,599],[601,601],[603,607],[609,609],[611,614],[616,617],[620,620],[623,629],[631,631],[633,634],[636,636],[638,644],[647,647],[649,651],[653,660],[664,673],[675,678],[680,682],[685,687],[689,693],[696,700],[702,707],[709,713],[715,716],[719,720],[722,731],[733,753],[755,756],[758,758],[762,765],[768,769],[771,781],[783,785],[787,788],[792,792],[795,795],[797,802],[804,817],[819,821],[823,823],[826,831],[833,838],[840,848],[850,851],[854,854],[856,860],[864,866],[868,869],[872,874],[876,876],[878,883],[885,890],[892,894],[896,900],[903,910],[912,913],[915,917],[919,920],[922,924],[926,926],[928,929],[931,931],[933,934],[936,939],[942,953],[956,959],[961,961],[963,975],[977,992],[994,995],[998,999]],
  "M":[[2,4],[6,7],[9,9],[11,11],[13,19],[21,23],[25,28],[30,32],[34,34],[41,45],[48,48],[50,50],[52,53],[55,55],[57,60],[62,63],[65,65],[67,67],[69,73],[77,83],[85,86],[88,96],[98,98],[100,106],[108,111],[113,113],[115,116],[118,127],[130,133],[136,136],[138,145],[147,147],[150,150],[152,153],[156,156],[158,158],[160,163],[165,174],[176,180],[182,185],[187,190],[194,194],[196,204],[207,214],[253,253],[255,292],[294,295],[297,298],[300,304],[308,309],[311,427]],
  "Z":[[100,141],[144,146],[148,150],[153,156],[200,249],[251,259],[300,359],[361,361],[364,364],[367,368],[400,404],[500,520],[522,522],[524,524],[527,533],[600,614],[700,729],[731,735],[800,802],[900,906]]
}
